{
  "user": [
    {
      "email": "Doha@gmail.com",
      "password": "123",
      "id": 1
    },
    {
      "email": "Ahmed@gmail.com",
      "password": "123",
      "id": 2
    },
    {
      "email": "A@g.com",
      "password": "123",
      "confirmPassword": "123",
      "id": 3
    }
  ]
}